<?xml version="1.0" encoding="utf-8"?>
<!-- Generator: Adobe Illustrator 19.1.0, SVG Export Plug-In . SVG Version: 6.00 Build 0)  -->
<svg version="1.1" xmlns="http://www.w3.org/2000/svg" xmlns:xlink="http://www.w3.org/1999/xlink" x="0px" y="0px"
	 viewBox="0 0 500 500" style="enable-background:new 0 0 500 500;" xml:space="preserve">
<style type="text/css">
	.st0{display:none;}
	.st1{display:inline;}
	.st2{opacity:0.15;fill:url(#XMLID_3_);}
	.st3{fill:#00F3C4;}
	.st4{display:inline;fill:#00F3C4;}
	.st5{display:inline;opacity:0.15;fill:url(#XMLID_4_);}
	.st6{display:inline;opacity:0.15;fill:url(#XMLID_5_);}
	.st7{display:inline;opacity:0.15;fill:url(#XMLID_6_);}
	.st8{opacity:0.15;fill:url(#XMLID_7_);}
	.st9{opacity:0.15;fill:url(#XMLID_8_);}
</style>
<g id="Livello_1">
</g>
<g id="Livello_2" class="st0">
	<g id="XMLID_4608_" class="st1">
		<linearGradient id="XMLID_3_" gradientUnits="userSpaceOnUse" x1="417.0019" y1="388.8992" x2="177.7126" y2="149.6099">
			<stop  offset="0.2" style="stop-color:#FFFFFF"/>
			<stop  offset="1" style="stop-color:#000000"/>
		</linearGradient>
		<path id="XMLID_4613_" class="st2" d="M478.5,251.9L343.6,117L298,199l-2,3.7l-0.4,0.7l-8.9,16l-24-43.2l2.5-4.4L210.3,117
			l65.2,116.7c-7.1-2-14.9-3.1-22.6-3.1c-8.9,0-17.2,1.4-25.2,4l21,21l4-8.1l21.5,43.7l48.2,7l-34.9,34l8.2,48l-43.1-22.7L209.7,380
			v0l76.8,76.8C389.4,441.5,469.7,356.9,478.5,251.9z"/>
		<path id="XMLID_4610_" class="st3" d="M343.6,117h-48l-32.9,59.2l24,43.2L343.6,117z M252.9,230.5c7.7,0,15.4,1.1,22.6,3.1
			L210.3,117H162l65.8,117.5C235.8,231.9,244.1,230.5,252.9,230.5z"/>
		<polygon id="XMLID_4609_" class="st3" points="252.8,247.4 274.3,291.1 322.5,298.1 287.6,332.1 295.9,380 252.8,357.4 209.7,380 
			217.9,332.1 183.1,298.1 231.2,291.1 		"/>
	</g>
</g>
<g id="Livello_3">
	<g id="XMLID_4620_" class="st0">
		<path id="XMLID_4625_" class="st4" d="M358.3,78h-31.2V78c0-8.3-6.7-15-15-15h-61.6h-61.6c-8.3,0-15,6.7-15,15V78h-31.2
			c-8.3,0-15,6.7-15,15v9.5c0,38.1,20.5,72.3,51.3,90.5c10.7,28.2,37,48.6,68.5,50.6v0.3c0,33.2-21.1,62.7-53.8,81.3
			c-3.5,2-5.5,5.7-5.5,9.7v0h62.4h62.4v0c0-4-2.1-7.8-5.5-9.7c-32.7-18.6-53.8-48.1-53.8-81.3v-0.3c31.4-2,57.8-22.4,68.5-50.6
			c30.8-18.2,51.3-52.4,51.3-90.5V93C373.3,84.7,366.6,78,358.3,78z M142.6,102.5V93h31.2v71.8c0,0.1,0,0.3,0,0.4c0,2,0.2,4,0.3,6
			C154.4,154.3,142.6,129.2,142.6,102.5z M358.3,102.5c0,26.7-11.8,51.8-31.5,68.7c0.1-2,0.3-3.9,0.3-6c0-0.1,0-0.3,0-0.4V93h31.2
			V102.5z"/>
		<linearGradient id="XMLID_4_" gradientUnits="userSpaceOnUse" x1="428.3054" y1="358.5446" x2="260.557" y2="190.7961">
			<stop  offset="0.2" style="stop-color:#FFFFFF"/>
			<stop  offset="1" style="stop-color:#000000"/>
		</linearGradient>
		<path id="XMLID_4623_" class="st5" d="M368.9,82.4c2.7,2.7,4.4,6.5,4.4,10.6v9.5c0,38.1-20.5,72.3-51.3,90.5
			c-10.7,28.2-37,48.6-68.5,50.6v0.3c0,33.2,21.1,62.7,53.8,81.3c3.5,2,5.5,5.7,5.5,9.7v0h-62.4h-62.4l97.3,97.3
			C398.2,416.3,486.2,323.5,495,208.5L368.9,82.4z"/>
		<linearGradient id="XMLID_5_" gradientUnits="userSpaceOnUse" x1="193.5215" y1="151.8154" x2="138.6788" y2="96.9728">
			<stop  offset="0.2" style="stop-color:#FFFFFF"/>
			<stop  offset="1" style="stop-color:#000000"/>
		</linearGradient>
		<path id="XMLID_4622_" class="st6" d="M142.6,102.5V93h31.2v71.8c0,0.1,0,0.3,0,0.4c0,2,0.2,4,0.3,6
			C154.4,154.3,142.6,129.2,142.6,102.5z"/>
		<linearGradient id="XMLID_6_" gradientUnits="userSpaceOnUse" x1="354.411" y1="143.9603" x2="315.2786" y2="104.8279">
			<stop  offset="0.2" style="stop-color:#FFFFFF"/>
			<stop  offset="1" style="stop-color:#000000"/>
		</linearGradient>
		<path id="XMLID_4621_" class="st7" d="M358.3,102.5c0,26.7-11.8,51.8-31.5,68.7c0.1-2,0.3-3.9,0.3-6c0-0.1,0-0.3,0-0.4V93h31.2
			V102.5z"/>
	</g>
	<g id="Livello_4" class="st0">
		<g id="XMLID_1_" class="st1">
			<linearGradient id="XMLID_7_" gradientUnits="userSpaceOnUse" x1="413.0661" y1="404.5927" x2="185.3475" y2="176.8742">
				<stop  offset="0.2" style="stop-color:#FFFFFF"/>
				<stop  offset="1" style="stop-color:#000000"/>
			</linearGradient>
			<path id="XMLID_26_" class="st8" d="M323.5,190l-75.7-75.7l34.4,69.7L323.5,190z M359.1,195.2l-55.6,54.2l13.1,76.6l-68.8-36.2
				L179.1,326l133,133c75.1-20.1,136.1-74.8,164.9-145.9L359.1,195.2z"/>
			<polygon id="XMLID_25_" class="st3" points="247.8,114.4 282.2,184 359.1,195.2 303.5,249.5 316.6,326 247.8,289.9 179.1,326 
				192.2,249.5 136.6,195.2 213.5,184 			"/>
		</g>
	</g>
	<g id="Livello_5">
		<g id="XMLID_1408_">
			<linearGradient id="XMLID_8_" gradientUnits="userSpaceOnUse" x1="420.2203" y1="382.0466" x2="184.1035" y2="145.9298">
				<stop  offset="0.2" style="stop-color:#FFFFFF"/>
				<stop  offset="1" style="stop-color:#000000"/>
			</linearGradient>
			<path id="XMLID_1432_" class="st9" d="M477,250.8L343.9,117.6l-47,84.5l0,0l-9.2,16.5L264,176l2.4-4.4l-54.1-54l64.3,115.1
				c-7.1-2-14.7-3.1-22.3-3.1c-8.7,0-16.9,1.4-24.8,3.9l13.7,13.7c20.2-3.5,41.8,2.5,57.4,18.2c15.6,15.6,21.6,37.2,18.2,57.4v0
				c0,0,0,0,0,0c-0.2,1.3-0.5,2.7-0.8,4c-0.1,0.5-0.2,0.9-0.3,1.4c-0.3,1.2-0.7,2.4-1.1,3.7c-0.2,0.6-0.4,1.1-0.6,1.7
				c-0.5,1.5-1.1,3.1-1.8,4.5c-0.5,1.2-1,2.3-1.6,3.5c-0.4,0.8-0.8,1.5-1.2,2.2c-0.6,1-1.1,2-1.7,3c-0.4,0.7-0.9,1.3-1.3,2
				c-0.7,1.1-1.5,2.1-2.3,3.1c-0.4,0.5-0.8,1.1-1.3,1.6c-1.3,1.5-2.6,3-4.1,4.5c-25.6,25.6-67,25.6-92.6,0l92.6,92.6
				c36.8-7.8,70.2-24.6,97.9-48l0,0c0.1-0.1,0.2-0.2,0.4-0.3c1.8-1.5,3.5-3,5.2-4.6c0.4-0.4,0.9-0.8,1.3-1.2
				c1.7-1.6,3.5-3.2,5.2-4.9c0.4-0.4,0.8-0.7,1.1-1.1c1.7-1.7,3.4-3.4,5-5.2c0.3-0.4,0.7-0.7,1-1.1c0.3-0.3,0.5-0.6,0.8-0.8l0,0
				c5.4-5.9,10.6-12.1,15.3-18.5l0,0c1.9-2.5,3.7-5.1,5.4-7.7c0.1-0.2,0.3-0.4,0.4-0.6c1.4-2.1,2.8-4.2,4.1-6.4
				c0.1-0.2,0.2-0.4,0.4-0.6l0,0C462.4,320.4,474,286.8,477,250.8z"/>
			<path id="XMLID_1409_" class="st3" d="M343.9,117.6h-47.4L264,176l23.7,42.6L343.9,117.6z M208.1,265.5
				c-25.6,25.6-25.6,67,0,92.6c25.6,25.6,67,25.6,92.6,0c25.6-25.6,25.6-67,0-92.6C275.2,239.9,233.7,239.9,208.1,265.5z
				 M254.4,229.6c7.6,0,15.2,1.1,22.3,3.1l-64.3-115.1h-47.7l64.9,116C237.5,231.1,245.7,229.6,254.4,229.6z"/>
		</g>
	</g>
</g>
</svg>
