<?xml version="1.0" encoding="utf-8"?>
<!-- Generator: Adobe Illustrator 19.1.0, SVG Export Plug-In . SVG Version: 6.00 Build 0)  -->
<svg version="1.1" id="Livello_1" xmlns="http://www.w3.org/2000/svg" xmlns:xlink="http://www.w3.org/1999/xlink" x="0px" y="0px"
	 viewBox="-24 26 40 40" style="enable-background:new -24 26 40 40;" xml:space="preserve">
<style type="text/css">
	.st0{fill:#FFFFFF;}
</style>
<path id="XMLID_844_" class="st0" d="M-17,37.3v2.9L-4,46l13-5.8v-2.9H-17z M-17,43.1v11.6H9V43.1l-13,5.8L-17,43.1z"/>
</svg>
