<?xml version="1.0" encoding="utf-8"?>
<!-- Generator: Adobe Illustrator 19.1.0, SVG Export Plug-In . SVG Version: 6.00 Build 0)  -->
<svg version="1.1" id="Livello_1" xmlns="http://www.w3.org/2000/svg" xmlns:xlink="http://www.w3.org/1999/xlink" x="0px" y="0px"
	 viewBox="-24 26 40 40" style="enable-background:new -24 26 40 40;" xml:space="preserve">
<style type="text/css">
	.st0{fill:#FFFFFF;}
</style>
<path id="XMLID_1268_" class="st0" d="M-4,26c-11,0-20,9-20,20s9,20,20,20s20-9,20-20S7,26-4,26z M7.2,42.7c0,0.2,0,0.4,0,0.6
	c0,6.6-5,14.3-14.3,14.3c-2.8,0-5.5-0.8-7.7-2.3c0.4,0,0.8,0.1,1.2,0.1c2.3,0,4.5-0.8,6.2-2.1c-2.2,0-4-1.5-4.7-3.5
	c0.3,0.1,0.6,0.1,0.9,0.1c0.5,0,0.9-0.1,1.3-0.2c-2.3-0.5-4-2.5-4-4.9c0,0,0,0,0-0.1c0.7,0.4,1.4,0.6,2.3,0.6
	c-1.3-0.9-2.2-2.4-2.2-4.2c0-0.9,0.2-1.8,0.7-2.5c2.5,3,6.2,5,10.3,5.2c-0.1-0.4-0.1-0.7-0.1-1.1c0-2.8,2.2-5,5-5
	c1.4,0,2.7,0.6,3.7,1.6C6.9,39.1,8,38.7,9,38.1c-0.4,1.2-1.2,2.2-2.2,2.8c1-0.1,2-0.4,2.9-0.8C9,41.1,8.1,42,7.2,42.7z"/>
</svg>
