<?xml version="1.0" encoding="utf-8"?>
<!-- Generator: Adobe Illustrator 19.1.0, SVG Export Plug-In . SVG Version: 6.00 Build 0)  -->
<svg version="1.1" id="Livello_1" xmlns="http://www.w3.org/2000/svg" xmlns:xlink="http://www.w3.org/1999/xlink" x="0px" y="0px"
	 viewBox="0 0 90 90" style="enable-background:new 0 0 90 90;" xml:space="preserve">
<style type="text/css">
	.st0{fill:#00F3C4;}
	.st1{opacity:0.15;fill:url(#XMLID_2_);}
	.st2{fill:#FFFFFF;}
	.st3{opacity:0.15;fill:url(#XMLID_3_);}
</style>
<g id="XMLID_1123_">
	<circle id="XMLID_1141_" class="st0" cx="45" cy="45" r="45"/>
	<linearGradient id="XMLID_2_" gradientUnits="userSpaceOnUse" x1="75.7736" y1="84.7119" x2="26.2979" y2="35.2362">
		<stop  offset="0.2" style="stop-color:#FFFFFF"/>
		<stop  offset="1" style="stop-color:#000000"/>
	</linearGradient>
	<path id="XMLID_1140_" class="st1" d="M83.7,68L38.6,22.9v44.2h-5.2l21.7,21.7C67.3,86,77.5,78.3,83.7,68z"/>
	<g id="XMLID_1125_">
		<g id="XMLID_1135_">
			<rect id="XMLID_1139_" x="33.5" y="22.9" class="st2" width="5.2" height="44.2"/>
		</g>
		<g id="XMLID_1126_">
			<rect id="XMLID_1127_" x="51.4" y="22.9" class="st2" width="5.2" height="44.2"/>
		</g>
	</g>
	<linearGradient id="XMLID_3_" gradientUnits="userSpaceOnUse" x1="81.2823" y1="72.3441" x2="44.1745" y2="35.2363">
		<stop  offset="0.2" style="stop-color:#FFFFFF"/>
		<stop  offset="1" style="stop-color:#000000"/>
	</linearGradient>
	<path id="XMLID_1124_" class="st3" d="M88.8,55.2L56.5,22.9v44.2h-5.2L68,83.7C78.3,77.5,86,67.3,88.8,55.2z"/>
</g>
</svg>
