<?xml version="1.0" encoding="utf-8"?>
<!-- Generator: Adobe Illustrator 19.1.0, SVG Export Plug-In . SVG Version: 6.00 Build 0)  -->
<svg version="1.1" id="Livello_1" xmlns="http://www.w3.org/2000/svg" xmlns:xlink="http://www.w3.org/1999/xlink" x="0px" y="0px"
	 viewBox="0 0 40 40" style="enable-background:new 0 0 40 40;" xml:space="preserve">
<path id="XMLID_1180_" d="M25.9,12.4h-2.1c-1.7,0-2,0.8-2,2V17h4l-0.5,4h-3.5v10.4h-4.2V21h-3.5v-4.1h3.5v-3c0-3.5,2.1-5.4,5.2-5.4
	c1.5,0,2.8,0.1,3.1,0.2V12.4z"/>
</svg>
