<?xml version="1.0" encoding="utf-8"?>
<!-- Generator: Adobe Illustrator 19.1.0, SVG Export Plug-In . SVG Version: 6.00 Build 0)  -->
<svg version="1.1" id="Livello_1" xmlns="http://www.w3.org/2000/svg" xmlns:xlink="http://www.w3.org/1999/xlink" x="0px" y="0px"
	 viewBox="-24 26 40 40" style="enable-background:new -24 26 40 40;" xml:space="preserve">
<g id="XMLID_230_">
	<path id="XMLID_231_" d="M15.8,39c-0.1,0.1-0.2,0.1-0.4,0.2c-9.6,4.1-19.1,8.2-28.7,12.3c-1.7,0.7-3.5,1.3-5.4,1.4
		c-1.3,0.1-2.5-0.1-3.6-1c-1.4-1.1-1.7-2.6-1.4-4.3c0.2-1,0.6-2,1-2.9c1.1-2.2,2.7-4,4.4-5.7c0,0.1-0.1,0.2-0.1,0.3
		c-0.6,1.1-1,2.3-1.1,3.6c-0.2,2.2,1.1,3.8,3.3,4.1c1.6,0.2,3.1-0.2,4.6-0.6c9-2.4,18.1-4.8,27.1-7.2C15.6,39,15.7,39,15.8,39
		L15.8,39z"/>
</g>
</svg>
