<?xml version="1.0" encoding="utf-8"?>
<!-- Generator: Adobe Illustrator 19.1.0, SVG Export Plug-In . SVG Version: 6.00 Build 0)  -->
<svg version="1.1" id="Livello_1" xmlns="http://www.w3.org/2000/svg" xmlns:xlink="http://www.w3.org/1999/xlink" x="0px" y="0px"
	 viewBox="0 0 500 500" style="enable-background:new 0 0 500 500;" xml:space="preserve">
<style type="text/css">
	.st0{opacity:0.15;fill:url(#XMLID_2_);}
	.st1{fill:#00F3C4;}
</style>
<g id="XMLID_4608_">
	<linearGradient id="XMLID_2_" gradientUnits="userSpaceOnUse" x1="415.5369" y1="370.8992" x2="176.2476" y2="131.6099">
		<stop  offset="0.2" style="stop-color:#FFFFFF"/>
		<stop  offset="1" style="stop-color:#000000"/>
	</linearGradient>
	<path id="XMLID_4613_" class="st0" d="M477,233.9L342.1,99l-45.6,82l-2,3.7l-0.4,0.7l-8.9,16l-24-43.2l2.5-4.4L208.9,99L274,215.7
		c-7.1-2-14.9-3.1-22.6-3.1c-8.9,0-17.2,1.4-25.2,4l21,21l4-8.1l21.5,43.7l48.2,7l-34.9,34l8.2,48l-43.1-22.7L208.2,362v0l76.8,76.8
		C388,423.5,468.2,338.9,477,233.9z"/>
	<path id="XMLID_4610_" class="st1" d="M342.1,99h-48l-32.9,59.2l24,43.2L342.1,99z M251.5,212.5c7.7,0,15.4,1.1,22.6,3.1L208.9,99
		h-48.3l65.8,117.5C234.3,213.9,242.6,212.5,251.5,212.5z"/>
	<polygon id="XMLID_4609_" class="st1" points="251.3,229.4 272.9,273.1 321,280.1 286.2,314.1 294.4,362 251.3,339.4 208.2,362 
		216.5,314.1 181.6,280.1 229.8,273.1 	"/>
</g>
</svg>
