<?xml version="1.0" encoding="utf-8"?>
<!-- Generator: Adobe Illustrator 19.1.0, SVG Export Plug-In . SVG Version: 6.00 Build 0)  -->
<svg version="1.1" id="Livello_1" xmlns="http://www.w3.org/2000/svg" xmlns:xlink="http://www.w3.org/1999/xlink" x="0px" y="0px"
	 viewBox="0 0 90 90" style="enable-background:new 0 0 90 90;" xml:space="preserve">
<style type="text/css">
	.st0{fill:#FFFFFF;}
	.st1{fill:#00F3C4;}
	.st2{opacity:0.15;fill:url(#XMLID_2_);enable-background:new    ;}
</style>
<g id="XMLID_843_">
	<circle id="XMLID_896_" class="st0" cx="45" cy="45" r="45"/>
	<g id="XMLID_881_">
		<path id="XMLID_882_" class="st1" d="M62.5,28.7h-35c-3.9,0-7,3.1-7,7v18.7c0,3.9,3.1,7,7,7h35c3.9,0,7-3.1,7-7V35.7
			C69.5,31.8,66.4,28.7,62.5,28.7z M31,32.5c0.5,0,0.8,0.4,0.8,0.8c0,0.5-0.4,0.8-0.8,0.8s-0.8-0.4-0.8-0.8S30.6,32.5,31,32.5z
			 M39.2,34.2h-4.8c-0.4,0-0.8-0.4-0.8-0.8c0-0.4,0.4-0.8,0.8-0.8h4.8c0.4,0,0.8,0.4,0.8,0.8C40.1,33.8,39.7,34.2,39.2,34.2z
			 M58.5,51.5c-3.6,3.6-9.4,3.6-13,0s-3.6-9.4,0-13s9.4-3.6,13,0S62.1,47.9,58.5,51.5z"/>
	</g>
	
		<linearGradient id="XMLID_2_" gradientUnits="userSpaceOnUse" x1="76.7875" y1="13.1625" x2="41.075" y2="48.875" gradientTransform="matrix(1 0 0 -1 0 90)">
		<stop  offset="0.2" style="stop-color:#FFFFFF"/>
		<stop  offset="1" style="stop-color:#000000"/>
	</linearGradient>
	<path id="XMLID_873_" class="st2" d="M67.6,30.9L67.6,30.9c1.2,1.3,1.9,2.9,1.9,4.8v18.7c0,3.9-3.1,7-7,7h-35
		c-1.9,0-3.5-0.7-4.8-1.9l0,0l29.9,29.9c18.7-3.2,33.5-18,36.7-36.7L67.6,30.9z"/>
</g>
</svg>
