<?php

use Illuminate\Database\Migrations\Migration;
use Illuminate\Database\Schema\Blueprint;

class CreateContestVideoTable extends Migration {

	/**
	 * Run the migrations.
	 *
	 * @return void
	 */
	public function up()
	{
		Schema::create('contest_video', function(Blueprint $table) {
			$table->increments('id');
			
                        $table->integer('video_id');
                        $table->integer('contest_id');
                        
			$table->timestamps();
		});
	}


	/**
	 * Reverse the migrations.
	 *
	 * @return void
	 */
	public function down()
	{
		Schema::drop('contest_video');
	}

}

