<?xml version="1.0" encoding="utf-8"?>
<!-- Generator: Adobe Illustrator 19.1.0, SVG Export Plug-In . SVG Version: 6.00 Build 0)  -->
<svg version="1.1" id="Livello_1" xmlns="http://www.w3.org/2000/svg" xmlns:xlink="http://www.w3.org/1999/xlink" x="0px" y="0px"
	 viewBox="0 0 90 90" style="enable-background:new 0 0 90 90;" xml:space="preserve">
<style type="text/css">
	.st0{fill:#FFFFFF;}
	.st1{opacity:0.15;fill:url(#XMLID_2_);}
	.st2{fill:#00F3C4;}
</style>
<g id="XMLID_955_">
	<g id="XMLID_959_">
		<circle id="XMLID_970_" class="st0" cx="45" cy="45" r="45"/>
		<linearGradient id="XMLID_2_" gradientUnits="userSpaceOnUse" x1="76.8125" y1="76.8126" x2="39.5397" y2="39.5398">
			<stop  offset="0.2" style="stop-color:#FFFFFF"/>
			<stop  offset="1" style="stop-color:#000000"/>
		</linearGradient>
		<path id="XMLID_960_" class="st1" d="M87,61L58,32v26H32l29,29C73,82.5,82.5,73,87,61z"/>
	</g>
	<rect id="XMLID_958_" x="32" y="32" class="st2" width="26" height="26"/>
</g>
</svg>
