<?xml version="1.0" encoding="utf-8"?>
<!-- Generator: Adobe Illustrator 19.1.0, SVG Export Plug-In . SVG Version: 6.00 Build 0)  -->
<svg version="1.1" xmlns="http://www.w3.org/2000/svg" xmlns:xlink="http://www.w3.org/1999/xlink" x="0px" y="0px"
	 viewBox="0 0 500 500" style="enable-background:new 0 0 500 500;" xml:space="preserve">
<style type="text/css">
	.st0{fill:#00F3C4;}
	.st1{opacity:0.15;fill:url(#XMLID_2_);}
	.st2{opacity:0.15;fill:url(#XMLID_3_);}
	.st3{opacity:0.15;fill:url(#XMLID_4_);}
	.st4{display:none;}
	.st5{display:inline;}
	.st6{opacity:0.15;fill:url(#XMLID_5_);}
</style>
<g id="Livello_1">
	<g id="XMLID_4620_">
		<path id="XMLID_4625_" class="st0" d="M358.3,86.7h-31.2v-0.1c0-8.3-6.7-15-15-15h-61.6h-61.6c-8.3,0-15,6.7-15,15v0.1h-31.2
			c-8.3,0-15,6.7-15,15v9.5c0,38.1,20.5,72.3,51.3,90.5c10.7,28.2,37,48.6,68.5,50.6v0.3c0,33.2-21.1,62.7-53.8,81.3
			c-3.5,2-5.5,5.7-5.5,9.7v0h62.4h62.4v0c0-4-2.1-7.8-5.5-9.7c-32.7-18.6-53.8-48.1-53.8-81.3v-0.3c31.4-2,57.8-22.4,68.5-50.6
			c30.8-18.2,51.3-52.4,51.3-90.5v-9.5C373.3,93.4,366.6,86.7,358.3,86.7z M142.6,111.2v-9.5h31.2v71.8c0,0.1,0,0.3,0,0.4
			c0,2,0.2,4,0.3,6C154.4,163,142.6,137.9,142.6,111.2z M358.3,111.2c0,26.7-11.8,51.8-31.5,68.7c0.1-2,0.3-3.9,0.3-6
			c0-0.1,0-0.3,0-0.4v-71.8h31.2V111.2z"/>
		<linearGradient id="XMLID_2_" gradientUnits="userSpaceOnUse" x1="428.3054" y1="367.2204" x2="260.557" y2="199.4719">
			<stop  offset="0.2" style="stop-color:#FFFFFF"/>
			<stop  offset="1" style="stop-color:#000000"/>
		</linearGradient>
		<path id="XMLID_4623_" class="st1" d="M368.9,91.1c2.7,2.7,4.4,6.5,4.4,10.6v9.5c0,38.1-20.5,72.3-51.3,90.5
			c-10.7,28.2-37,48.6-68.5,50.6v0.3c0,33.2,21.1,62.7,53.8,81.3c3.5,2,5.5,5.7,5.5,9.7v0h-62.4h-62.4l97.3,97.3
			C398.2,424.9,486.2,332.2,495,217.2L368.9,91.1z"/>
		<linearGradient id="XMLID_3_" gradientUnits="userSpaceOnUse" x1="193.5215" y1="160.4912" x2="138.6788" y2="105.6486">
			<stop  offset="0.2" style="stop-color:#FFFFFF"/>
			<stop  offset="1" style="stop-color:#000000"/>
		</linearGradient>
		<path id="XMLID_4622_" class="st2" d="M142.6,111.2v-9.5h31.2v71.8c0,0.1,0,0.3,0,0.4c0,2,0.2,4,0.3,6
			C154.4,163,142.6,137.9,142.6,111.2z"/>
		<linearGradient id="XMLID_4_" gradientUnits="userSpaceOnUse" x1="354.411" y1="152.6361" x2="315.2786" y2="113.5037">
			<stop  offset="0.2" style="stop-color:#FFFFFF"/>
			<stop  offset="1" style="stop-color:#000000"/>
		</linearGradient>
		<path id="XMLID_4621_" class="st3" d="M358.3,111.2c0,26.7-11.8,51.8-31.5,68.7c0.1-2,0.3-3.9,0.3-6c0-0.1,0-0.3,0-0.4v-71.8h31.2
			V111.2z"/>
	</g>
</g>
<g id="Livello_2" class="st4">
	<g id="XMLID_4608_" class="st5">
		<linearGradient id="XMLID_5_" gradientUnits="userSpaceOnUse" x1="417.0019" y1="388.8992" x2="177.7126" y2="149.6099">
			<stop  offset="0.2" style="stop-color:#FFFFFF"/>
			<stop  offset="1" style="stop-color:#000000"/>
		</linearGradient>
		<path id="XMLID_4613_" class="st6" d="M478.5,251.9L343.6,117L298,199l-2,3.7l-0.4,0.7l-8.9,16l-24-43.2l2.5-4.4L210.3,117
			l65.2,116.7c-7.1-2-14.9-3.1-22.6-3.1c-8.9,0-17.2,1.4-25.2,4l21,21l4-8.1l21.5,43.7l48.2,7l-34.9,34l8.2,48l-43.1-22.7L209.7,380
			v0l76.8,76.8C389.4,441.5,469.7,356.9,478.5,251.9z"/>
		<path id="XMLID_4610_" class="st0" d="M343.6,117h-48l-32.9,59.2l24,43.2L343.6,117z M252.9,230.5c7.7,0,15.4,1.1,22.6,3.1
			L210.3,117H162l65.8,117.5C235.8,231.9,244.1,230.5,252.9,230.5z"/>
		<polygon id="XMLID_4609_" class="st0" points="252.8,247.4 274.3,291.1 322.5,298.1 287.6,332.1 295.9,380 252.8,357.4 209.7,380 
			217.9,332.1 183.1,298.1 231.2,291.1 		"/>
	</g>
</g>
</svg>
