<?xml version="1.0" encoding="utf-8"?>
<!-- Generator: Adobe Illustrator 19.1.0, SVG Export Plug-In . SVG Version: 6.00 Build 0)  -->
<svg version="1.1" id="Livello_1" xmlns="http://www.w3.org/2000/svg" xmlns:xlink="http://www.w3.org/1999/xlink" x="0px" y="0px"
	 viewBox="0 0 40 40" style="enable-background:new 0 0 40 40;" xml:space="preserve">
<style type="text/css">
	.st0{fill:#00F3C4;}
</style>
<g id="XMLID_1524_">
	<path id="XMLID_1528_" class="st0" d="M19.8,17.2c-1.6,1.6-1.6,4,0,5.6c1.6,1.6,4.1,1.6,5.6,0c1.6-1.6,1.6-4.1,0-5.6
		C23.9,15.6,21.4,15.6,19.8,17.2z M24.7,22c-1.1,1.1-2.9,1.1-4,0s-1.1-2.9,0-4s2.9-1.1,4,0C25.8,19.1,25.8,20.9,24.7,22z"/>
	<path id="XMLID_1525_" class="st0" d="M20,5C11.8,5,5,11.8,5,20s6.8,15,15,15s15-6.8,15-15S28.2,5,20,5z M29.3,23.5
		c0,1.5-1.2,2.6-2.6,2.6H13.3c-1.5,0-2.6-1.2-2.6-2.6v-7.1c0-1.5,1.2-2.6,2.6-2.6h13.3c1.5,0,2.6,1.2,2.6,2.6L29.3,23.5L29.3,23.5z"
		/>
</g>
</svg>
